ID,(?i)(observed|actual)\s*(behaviou?r|results?|response)?\s*(:|\\n|-),(?i)(expected|desired)\s*(behaviou?r|results?|response)?\s*(:|\\n|-),(?i)(steps|reproduce|str)\s*(:|\\n|-)
150,,,
1667,,,
1942,,,
2891,,,
3553,,,
4207,,,
5314,,22,
5603,,,
5820,,,
6518,,,
6750,,,
7485,,,
7714,,22,22
9983,,,
11184,,,
12034,,,
12415,,,
13868,,,
14774,,,
16015,,,
16207,,,
16643,,,
17063,,,
17740,,,
23920,,,22
24050,,,
24679,,,
24924,,,
25124,,,
25581,,,
26622,,,
27850,,,
28949,,,
29860,,,
31194,,,
32064,,,
33007,,,
33259,,,
34192,,,
34899,,,
35657,22,22,22
36346,,,
36945,,,
38606,,,
39493,,,
40275,,,
40357,,,
40569,,,
40726,,,
41836,,,22
41883,,,
42562,,,
43057,,,
43177,,,
47529,,,
48130,,,22
48995,,,
50175,,,
50884,,,
51609,,,
52260,,,
52363,,,
52985,,,
53958,,,
54050,,,
57037,,,
57950,,,
60101,,,
60308,,,
60476,,,
60657,,,
61639,,,
61990,,,
62957,,,
62997,,,
63650,23,,23
64431,,,
64862,,,
65539,,,
65906,,,
66132,,,
67045,,,
67940,,,
68530,,,
69678,,,
71240,,,
72121,,,
72317,,,
72511,,,
73299,,,
73947,,,
74264,,,
75424,,,
75521,,,
75963,,,
76190,,,
78045,,,
78058,,,
78818,,,
79865,,,
79982,,,
80527,,,
82710,,,
83292,,,22
86019,,,
86230,,,
86338,,,
86850,,,
87363,,,
87800,,,
88385,,,
88869,,,
89117,,,
90341,,,
94850,,,
95677,,,
95696,,,
95883,,,
96712,,,
96887,,,
98412,,,
98722,,,
98780,,,
98971,,,
99059,,,
100193,,,
102620,,,
103553,,,
104448,,,
105368,,,
106429,,,
106554,,,
108559,,,
108729,,,
109835,,,
112308,,,
113061,,,
113516,22,22,22
113724,22,22,22
115579,,,
115709,,,
116534,,,
116715,22,,
118203,,,
118278,,,
118720,,,
119023,,,
121640,,,
124036,,,
124152,,,
124910,,,
125135,,,
125350,,,
127201,,,
127617,,,
127730,,,
128944,,,
132088,,,
132107,,,
132219,,,
132719,,,
135728,,,
136242,22,,
137971,,,
138514,,,
139083,,,
140866,,,
140876,,,
141549,,,
144941,,,
145122,,,
145877,,,
147649,22,,22
148757,22,,22
150606,,,
151416,,,
151629,,,
152809,,,
153234,,,
153928,,,
153949,,,
154599,,,
154668,,,
155526,22,22,22
155913,,,
157392,,,
157933,,,
158511,,,
159941,,,22
160907,,,
161472,,,
162788,,,
164140,,,
164945,,,
165342,,,
166150,,,
166200,,,
166937,,,
169312,,,
169918,,,
171248,,,
171461,,,22
171670,,,23
172335,,,
172636,22,22,22
173802,,,22
174813,,,
175174,,,
175990,,,22
176668,22,22,22
177130,,,
179560,,,22
182214,,,
182633,,,
183551,22,22,22
184638,,,
185056,,,
186948,,,
187150,,,
187284,,,
187321,,,22
188140,,,22
188535,,,
189497,,,22
189755,,22,
190160,,,22
190982,,,
191284,,,
191899,,,
192993,,,
193962,,,
195536,,,22
196264,,,
199084,,,
199695,,,
200060,,,22
201897,,,
202154,,,
204132,,,
204157,,,
204499,,,
205104,,,
206191,,,
207254,22,22,22
208860,22,22,22
209682,,,22
209694,,,22
209925,,,
211978,22,,22
212087,,,
214173,,,
216219,,,
216539,,,
217844,,,
218515,,,22
219552,,,
219804,,,
221937,,,
222092,,,
223553,,,
225007,,,22
225040,,,
225512,,,
225850,,,
228223,,,
229028,,,
229806,,,22
230933,,,
233556,,,
235046,,,
235058,,,
235929,,,
235933,,,
236295,,,
238089,,,
238130,,,
241172,,,22
244801,,,
244994,,,
246948,,,22
247213,,,
247276,,,
247768,,,22
247922,,,22
249668,,,
250152,,,
250861,,,
252759,,,
252861,,,22
253490,,,
253505,,,
256474,,,
256757,,,
258049,,,
260649,,,
262128,,,22
262656,,,
262747,,,22
264327,,,
265845,,,
267563,22,22,22
268264,22,,22
269970,,,23
270417,,,
270798,,,22
272668,,,
272692,,,
273011,,,
274997,,,
276271,,,
277754,,,
278219,,,
278464,,,
278951,,,22
279317,,,
281140,,,
281893,,,
282037,,,
282361,,,
283130,,,
283431,,,22
285179,,,
286568,,,
287008,,,
287844,,,
288017,,,
288169,,,22
289198,,,
290809,,,
292443,,,
294864,,,
294983,,,
295138,,,
297345,,,
297912,,,
297946,,,22
298062,,,
298579,,,
298837,,,
298926,,,
299011,,,
299743,,,
301407,,,
302185,,,
303039,,,
303207,,,
305450,,22,22
306006,,,22
306824,,,
307539,,,22
311530,22,22,22
312087,,,
312433,,,
313147,,,
314313,,,
314468,,,
315354,,,
316459,,,
316725,,,
317425,,,
317569,22,22,
319230,,,
319425,,,22
319637,,,22
319903,,,
320281,,,
320785,,,
321564,,22,
321692,,,
322264,,,
322291,,,
323226,,,22
325264,,,22
325755,,,
326356,,,
327048,,,
327211,,,
328380,,,22
329047,,,
329317,,,
329492,,,
329572,,,22
330015,,,
330854,,,
332896,,,
333287,,,
333518,,,
333906,,,
334301,,,
334458,,,
334986,,,22
335951,,,
336405,,,
337104,,,
337536,,,
338795,,,
338802,,,22
339144,,,
339784,,,
341509,,,
